<svg class="favorite-icon"
        width="20px" height="18px">
    <path
          d="M10.311,17.996 L2.390,9.956 C1.363,8.914 0.798,7.528 0.798,6.054 C0.798,4.580 1.363,3.194 2.390,2.153 C4.510,0.001 7.959,0.003 10.077,2.153 L10.311,2.390 L10.544,2.153 C12.664,0.001 16.113,0.003 18.231,2.153 L18.231,2.153 C19.258,3.194 19.823,4.580 19.823,6.054 C19.823,7.528 19.258,8.914 18.231,9.956 L10.311,17.996 ZM6.233,2.543 C5.347,2.543 4.461,2.885 3.786,3.570 C3.132,4.234 2.772,5.115 2.772,6.054 C2.772,6.992 3.132,7.875 3.786,8.539 L10.311,15.162 L16.835,8.539 C17.489,7.875 17.849,6.992 17.849,6.054 C17.849,5.115 17.489,4.234 16.835,3.570 L16.835,3.570 C15.487,2.201 13.291,2.200 11.940,3.570 L10.311,5.224 L8.681,3.570 C8.006,2.885 7.120,2.543 6.233,2.543 Z"/>
</svg>